{
  "type": "service_account",
  "project_id": "project_id",
  "private_key_id": "secret!",
  "private_key": "Private key should be here, but I have to remove it",
  "client_email": "server@servert.iam.gserviceaccount.com",
  "client_id": "21 digets of the google private ID",
  "auth_uri": "https://accounts.google.com/o/oauth2/auth",
  "token_uri": "https://oauth2.googleapis.com/token",
  "auth_provider_x509_cert_url": "https://www.googleapis.com/oauth2/v1/certs",
  "client_x509_cert_url": "https://www.googleapis.com/robot/v1/metadata/x509/project-path"
}
